<?xml version="1.0" encoding="UTF-8"?>
<CustomTab xmlns="http://soap.sforce.com/2006/04/metadata">
    <label>Weekly Visitor Report</label>
    <mobileReady>false</mobileReady>
    <motif>Custom82: Whistle</motif>
    <page>WeeklyVisitorReport</page>
</CustomTab>
